<svg width="896" height="485" viewBox="0 0 896 485" fill="none" xmlns="http://www.w3.org/2000/svg">
<rect y="3.78906" width="880.762" height="481.211" rx="5" fill="#2F80ED"/>
<mask id="mask0" mask-type="alpha" maskUnits="userSpaceOnUse" x="22" y="0" width="874" height="468">
<rect x="22.3492" width="873.651" height="467.318" rx="13" fill="#3FB5DB"/>
</mask>
<g mask="url(#mask0)">
</g>
<path d="M394.918 467H774.917C779.291 467 782.836 463.627 782.836 459.468V391.666H838.25C842.624 391.666 846.168 388.294 846.168 384.135V308.797C846.168 304.638 842.624 301.266 838.25 301.266H782.836V233.463C782.836 229.301 779.291 225.928 774.917 225.928H760.389C761.505 221.004 760.324 215.859 757.153 211.824L721.38 166.448L737.898 154.657C745.237 149.429 749.336 141.049 748.817 132.338L748.024 118.771C747.806 115.092 749.539 111.553 752.637 109.343L769.152 97.5557L776.102 106.37C777.36 107.967 779.233 109.026 781.314 109.308C781.683 109.357 782.057 109.384 782.433 109.381C784.148 109.384 785.815 108.853 787.184 107.874L852.503 61.2458C862.991 53.759 865.118 39.5957 857.25 29.6121L852.851 24.0255C844.972 14.0557 830.096 12.0383 819.601 19.5148L754.29 66.1393C750.793 68.6361 750.082 73.3606 752.706 76.6884L759.653 85.503L743.139 97.2936C735.8 102.522 731.698 110.898 732.22 119.609L733.01 133.176C733.231 136.855 731.498 140.397 728.4 142.604L711.886 154.395L676.11 109.019C672.366 104.194 666.285 101.535 659.998 101.973C654 102.387 648.64 105.698 645.795 110.743L580.745 225.928H394.918C390.544 225.928 387 229.301 387 233.463V308.797C387 312.96 390.544 316.332 394.918 316.332H450.333V376.599H394.918C390.544 376.599 387 379.972 387 384.135V459.468C387 463.627 390.544 467 394.918 467V467ZM829.103 31.564C832.596 29.0673 837.558 29.7397 840.185 33.0676L844.585 38.6543C847.205 41.9821 846.494 46.6998 843.001 49.1965L784.013 91.3069L770.116 73.671L829.103 31.564ZM529.502 391.666H640.334V451.933H529.502V391.666ZM592.834 316.332H703.666V376.599H592.834V316.332ZM767.003 451.933H656.167V391.666H767.003V451.933ZM830.335 376.599H719.5V316.332H830.335V376.599ZM767.003 301.266H656.167V257.396L737.199 240.995H767.003V301.266ZM659.747 117.882C660.016 117.354 660.574 117.016 661.19 116.999L661.346 116.992C662.186 117.006 662.966 117.402 663.444 118.057L699.213 163.434L666.553 186.749C663.056 189.246 662.346 193.967 664.97 197.298C667.593 200.626 672.555 201.299 676.055 198.805L708.715 175.49L744.487 220.866C745.056 221.528 745.222 222.421 744.922 223.225C744.733 223.783 744.237 224.194 743.628 224.297L586.569 256.079C585.594 256.224 584.615 255.827 584.054 255.055C583.423 254.331 583.296 253.324 583.727 252.475L659.747 117.882ZM571.391 264.097C575.61 269.618 582.85 272.249 589.863 270.815L640.334 260.6V301.266H529.502V240.995H572.232L569.779 245.34C566.387 251.351 567.021 258.693 571.391 264.097V264.097ZM402.833 271.132H418.666C423.04 271.132 426.585 267.759 426.585 263.597C426.585 259.438 423.04 256.065 418.666 256.065H402.833V240.995H513.669V301.266H402.833V271.132ZM466.166 316.332H577.001V376.599H466.166V316.332ZM402.833 391.666H513.669V451.933H402.833V391.666Z" fill="white" fill-opacity="0.1"/>
</svg>
