<svg width="21" height="22" viewBox="0 0 21 22" fill="none" xmlns="http://www.w3.org/2000/svg">
<path d="M20.2998 4.18103C19.9105 3.7405 19.3555 3.49786 18.7372 3.49786H3.78994L3.63949 2.38068C3.47735 1.17716 2.63141 0.234375 1.71352 0.234375H0.615234C0.275413 0.234375 0 0.507166 0 0.84375C0 1.18033 0.275413 1.45312 0.615234 1.45312H1.71352C1.91091 1.45312 2.32892 1.86652 2.41976 2.54175L4.18087 15.6246C4.25841 16.2013 4.55754 16.7411 5.02313 17.1448C5.36839 17.4443 5.77647 17.6435 6.20393 17.7268C6.02977 18.044 5.93076 18.4074 5.93076 18.7932C5.93076 20.0291 6.94589 21.0344 8.1935 21.0344C9.44111 21.0344 10.4562 20.0291 10.4562 18.7932C10.4562 18.425 10.3656 18.0776 10.206 17.7709H13.4299C13.2703 18.0776 13.1796 18.425 13.1796 18.7932C13.1796 20.0291 14.1948 21.0344 15.4424 21.0344C16.69 21.0344 17.7051 20.0291 17.7051 18.7932C17.7051 18.425 17.6144 18.0776 17.4549 17.7709H19.0668C19.4065 17.7709 19.682 17.4979 19.682 17.1615C19.682 16.8249 19.4065 16.5521 19.0668 16.5521H6.6559C6.05476 16.5521 5.47991 16.0535 5.40044 15.4634L5.27178 14.5072H10.0602C10.0604 14.5072 10.0605 14.5074 10.0607 14.5074C10.0608 14.5074 10.061 14.5072 10.0613 14.5072H14.0139C14.014 14.5072 14.0142 14.5074 14.0145 14.5074C14.0147 14.5074 14.0147 14.5072 14.0148 14.5072H17.4193C18.0066 14.5072 18.5865 14.2849 19.0521 13.8814C19.5176 13.4776 19.8168 12.9376 19.8943 12.3609L20.7768 5.8054C20.8585 5.1984 20.6892 4.62156 20.2998 4.18103ZM9.22578 18.7932C9.22578 19.357 8.76275 19.8156 8.1935 19.8156C7.62441 19.8156 7.16122 19.357 7.16122 18.7932C7.16122 18.2295 7.62441 17.7709 8.1935 17.7709C8.76275 17.7709 9.22578 18.2295 9.22578 18.7932ZM16.4746 18.7932C16.4746 19.357 16.0116 19.8156 15.4424 19.8156C14.8731 19.8156 14.4101 19.357 14.4101 18.7932C14.4101 18.2295 14.8731 17.7709 15.4424 17.7709C16.0116 17.7709 16.4746 18.2295 16.4746 18.7932ZM19.3739 4.98385C19.5263 5.15619 19.5913 5.39058 19.5571 5.64417L19.1871 8.39318H15.001L15.2483 4.71661H18.7372C18.9957 4.71661 19.2217 4.81151 19.3739 4.98385ZM10.6368 13.2885L10.3893 9.61193H13.6857L13.4382 13.2885H10.6368ZM10.3072 8.39318L10.0599 4.71661H14.0152L13.7678 8.39318H10.3072ZM8.82668 4.71661L9.07406 8.39318H4.44875L3.95384 4.71661H8.82668ZM4.61281 9.61193H9.15609L9.40362 13.2885H5.10772L4.61281 9.61193ZM17.4193 13.2885H14.6714L14.9189 9.61193H19.0231L18.6747 12.1999C18.5953 12.79 18.0203 13.2885 17.4193 13.2885Z" fill="white"/>
</svg>
