<svg width="14" height="16" viewBox="0 0 14 16" fill="none" xmlns="http://www.w3.org/2000/svg">
<path d="M12.75 0.5H1.75C1.33579 0.5 1 0.835787 1 1.25V14.1296C1 14.7222 1.65508 15.0807 2.15429 14.7613L6.84571 11.7587C7.09216 11.601 7.40784 11.601 7.65429 11.7587L12.3457 14.7613C12.8449 15.0807 13.5 14.7222 13.5 14.1296V1.25C13.5 0.835786 13.1642 0.5 12.75 0.5Z" stroke="#E0E0E0"/>
</svg>
